Week 4 Lab: Exploratory Data Analysis in R - 2 Looking for Patterns
…
2.0.2.3 Categorical and numerical

Like histograms, boxplots show the center, spread, and shape of distributions, but these are most useful when comparing more than one group.

Median: the central line of the boxplot is

Interquartile range: The “box” part of the box is an indication of the interquartile range. This is a

Have a look at the Sacramento dataset:

Sacramento

# A tibble: 932 × 9
   city           zip     beds baths  sqft type        price latitude longitude
   <fct>          <fct>  <int> <dbl> <int> <fct>       <int>    <dbl>     <dbl>
 1 SACRAMENTO     z95838     2     1   836 Residential 59222     38.6     -121.
 2 SACRAMENTO     z95823     3     1  1167 Residential 68212     38.5     -121.
 3 SACRAMENTO     z95815     2     1   796 Residential 68880     38.6     -121.
 4 SACRAMENTO     z95815     2     1   852 Residential 69307     38.6     -121.
 5 SACRAMENTO     z95824     2     1   797 Residential 81900     38.5     -121.
 6 SACRAMENTO     z95841     3     1  1122 Condo       89921     38.7     -121.
 7 SACRAMENTO     z95842     3     2  1104 Residential 90895     38.7     -121.
 8 SACRAMENTO     z95820     3     1  1177 Residential 91002     38.5     -121.
 9 RANCHO_CORDOVA z95670     2     2   941 Condo       94905     38.6     -121.
10 RIO_LINDA      z95673     3     2  1146 Residential 98937     38.7     -121.
# ℹ 922 more rows
…
