Exploratory Data Analysis in R - 2 Looking for Patterns in One Variable
…
2  Looking for Patterns in One Variable

There’s not really a right or wrong way to do EDA, but many often start simply by exploring patterns in single variables. This is called univariate analysis. We do this by selecting variables one at a time and plotting them. However, the approach we take to visualization will depend on the kind of data we have.

Categorical

What we’re looking for here are relative proportions. Does some categories stand out from the others? We’ve seen the geom_bar geometry be used for this. But what if the counts are already in the data? For example, look at the HairEyeColor dataset from the modeldata package:

hairEye<-as_tibble(HairEyeColor)
hairEye

# A tibble: 32 × 4
   Hair  Eye   Sex       n
   <chr> <chr> <chr> <dbl>
 1 Black Brown Male     32
 2 Brown Brown Male     53
 3 Red   Brown Male     10
 4 Blond Brown Male      3
 5 Black Blue  Male     11
 6 Brown Blue  Male     50
 7 Red   Blue  Male     10
 8 Blond Blue  Male     30
 9 Black Hazel Male     10
10 Brown Hazel Male     25
# ℹ 22 more rows
…
