Week 4 Lab: Exploratory Data Analysis in R - 1 Introducing Exploratory Data Analysis
…
olympics<-read_csv("data/olympics.csv")

Rows: 39783 Columns: 10
── Column specification ────────────────────────────────────────────────────────
Delimiter: ","
chr (6): Name, Sex, NOC, Season, Sport, Medal
dbl (4): Age, Height, Weight, Year

ℹ Use `spec()` to retrieve the full column specification for this data.
ℹ Specify the column types or set `show_col_types = FALSE` to quiet this message.

olympics

# A tibble: 39,783 × 10
   Name                 Sex     Age Height Weight NOC    Year Season Sport Medal
   <chr>                <chr> <dbl>  <dbl>  <dbl> <chr> <dbl> <chr>  <chr> <chr>
 1 Edgar Lindenau Aabye M        34     NA     NA DEN    1900 Summer Tug-… Gold 
 2 Arvo Ossian Aaltonen M        30     NA     NA FIN    1920 Summer Swim… Bron…
 3 Arvo Ossian Aaltonen M        30     NA     NA FIN    1920 Summer Swim… Bron…
 4 Juhamatti Tapio Aal… M        28    184     85 FIN    2014 Winter Ice … Bron…
 5 Paavo Johannes Aalt… M        28    175     64 FIN    1948 Summer Gymn… Bron…
 6 Paavo Johannes Aalt… M        28    175     64 FIN    1948 Summer Gymn… Gold 
 7 Paavo Johannes Aalt… M        28    175     64 FIN    1948 Summer Gymn… Gold 
 8 Paavo Johannes Aalt… M        28    175     64 FIN    1948 Summer Gymn… Gold 
 9 Paavo Johannes Aalt… M        32    175     64 FIN    1952 Summer Gymn… Bron…
10 Kjetil Andr Aamodt   M        20    176     85 NOR    1992 Winter Alpi… Gold 
# ℹ 39,773 more rows
…
oCities<-read_csv("data/olympicCities.csv")

Rows: 43 Columns: 6
── Column specification ────────────────────────────────────────────────────────
Delimiter: ","
chr (3): City, Country, Season
dbl (3): Times_Hosted, Latitude, Longitude

ℹ Use `spec()` to retrieve the full column specification for this data.
ℹ Specify the column types or set `show_col_types = FALSE` to quiet this message.

oCities

# A tibble: 43 × 6
   City        Country       Times_Hosted Latitude Longitude Season
   <chr>       <chr>                <dbl>    <dbl>     <dbl> <chr> 
 1 Athens      Greece                   2     38.0    23.7   S     
 2 Paris       France                   2     48.9     2.35  S     
 3 St. Louis   United States            1     38.6   -90.2   S     
 4 London      England                  3     51.5    -0.123 S     
 5 Stockholm   Sweden                   1     59.3    18.1   S     
 6 Antwerp     Belgium                  1     51.2     4.4   S     
 7 Amsterdam   Netherlands              1     52.4     4.9   S     
 8 Los Angeles United States            2     34.0  -118.    S     
 9 Berlin      Germany                  1     52.5    13.4   S     
10 Helsinki    Finland                  1     60.2    24.9   S     
# ℹ 33 more rows
…
