Week 4 Lab: Exploratory Data Analysis in R - 3 Looking for Patterns in More than One Variable
…
Center line The central line of the boxplot is the median value.

Box The “box” part of the box is an indication of the interquartile range: the values between the 25% and 75% quartiles. Half of our data falls within the range defined by the bounds of the box.

Whiskers The whiskers are the lines at either end of the boxplot. These extend to 10% and 90%, respectively.

Outliers Boxplots use individual points to visualize outliers, which is anything that falls beyond the reach of the whiskers.

Have a look at the Sacramento dataset from the modeldata package:

#|
Sacramento

# A tibble: 932 × 9
   city           zip     beds baths  sqft type        price latitude longitude
   <fct>          <fct>  <int> <dbl> <int> <fct>       <int>    <dbl>     <dbl>
 1 SACRAMENTO     z95838     2     1   836 Residential 59222     38.6     -121.
 2 SACRAMENTO     z95823     3     1  1167 Residential 68212     38.5     -121.
 3 SACRAMENTO     z95815     2     1   796 Residential 68880     38.6     -121.
 4 SACRAMENTO     z95815     2     1   852 Residential 69307     38.6     -121.
 5 SACRAMENTO     z95824     2     1   797 Residential 81900     38.5     -121.
 6 SACRAMENTO     z95841     3     1  1122 Condo       89921     38.7     -121.
 7 SACRAMENTO     z95842     3     2  1104 Residential 90895     38.7     -121.
 8 SACRAMENTO     z95820     3     1  1177 Residential 91002     38.5     -121.
 9 RANCHO_CORDOVA z95670     2     2   941 Condo       94905     38.6     -121.
10 RIO_LINDA      z95673     3     2  1146 Residential 98937     38.7     -121.
# ℹ 922 more rows
…
abalone<-read_csv("data/abalone.csv")

New names:
Rows: 4177 Columns: 10
── Column specification
──────────────────────────────────────────────────────── Delimiter: "," chr
(1): sex dbl (9): ...1, length, diameter, height, weight.whole, weight.shucked,
weigh...
ℹ Use `spec()` to retrieve the full column specification for this data. ℹ
Specify the column types or set `show_col_types = FALSE` to quiet this message.
• `` -> `...1`

abalone

# A tibble: 4,177 × 10
    ...1 sex   length diameter height weight.whole weight.shucked weight.viscera
   <dbl> <chr>  <dbl>    <dbl>  <dbl>        <dbl>          <dbl>          <dbl>
 1     1 M      0.455    0.365  0.095        0.514         0.224          0.101 
 2     2 M      0.35     0.265  0.09         0.226         0.0995         0.0485
 3     3 F      0.53     0.42   0.135        0.677         0.256          0.142 
 4     4 M      0.44     0.365  0.125        0.516         0.216          0.114 
 5     5 I      0.33     0.255  0.08         0.205         0.0895         0.0395
 6     6 I      0.425    0.3    0.095        0.352         0.141          0.0775
 7     7 F      0.53     0.415  0.15         0.778         0.237          0.142 
 8     8 F      0.545    0.425  0.125        0.768         0.294          0.150 
 9     9 M      0.475    0.37   0.125        0.509         0.216          0.112 
10    10 F      0.55     0.44   0.15         0.894         0.314          0.151 
# ℹ 4,167 more rows
# ℹ 2 more variables: weight.shell <dbl>, rings <dbl>
…
