Week 11 Lab: Wrong But In a Useful Way - 1 A motivating example
…
The question we want to answer is: can we use the relationship between tree height and some other measurement(s) to estimate, or model, tree height? So first, we would want to know whether a relationship exists between measurements.

First, let’s get some tree data into R:

library(tidyverse) 

treeData<-read_csv("data/TS3_Raw_tree_data.csv") 

treeDataNC<-treeData %>%
  filter(City=="Charlotte, NC") %>%
  filter(CommonName=="Willow oak")

treeDataNC

# A tibble: 49 × 41
   DbaseID Region City   Source TreeID Zone  `Park/Street` SpCode ScientificName
     <dbl> <chr>  <chr>  <chr>   <dbl> <chr> <chr>         <chr>  <chr>         
 1   11435 Piedmt Charl… CLTMa…  10225 F6    Street        QUPH   Quercus phell…
 2   11439 Piedmt Charl… CLTMa…  11053 F6    Street        QUPH   Quercus phell…
 3   11447 Piedmt Charl… CLTMa…  12222 F6    Street        QUPH   Quercus phell…
 4   11462 Piedmt Charl… CLTMa…  13521 F6    Street        QUPH   Quercus phell…
 5   11469 Piedmt Charl… CLTMa…  14232 F6    Street        QUPH   Quercus phell…
 6   11503 Piedmt Charl… CLTMa…  19141 F5    Street        QUPH   Quercus phell…
 7   11514 Piedmt Charl… CLTMa…  20011 F5    Street        QUPH   Quercus phell…
 8   11539 Piedmt Charl… CLTMa…  23048 F6    Street        QUPH   Quercus phell…
 9   11543 Piedmt Charl… CLTMa…  23565 E8    Street        QUPH   Quercus phell…
10   11570 Piedmt Charl… CLTMa…  27540 F8    Street        QUPH   Quercus phell…
# ℹ 39 more rows
# ℹ 32 more variables: CommonName <chr>, TreeType <chr>, address <chr>,
#   street <chr>, side <chr>, cell <dbl>, OnStreet <chr>, FromStreet <chr>,
#   ToStreet <chr>, Age <dbl>, `DBH (cm)` <dbl>, `TreeHt (m)` <dbl>,
#   CrnBase <dbl>, `CrnHt (m)` <dbl>, `CdiaPar (m)` <dbl>,
#   `CDiaPerp (m)` <dbl>, `AvgCdia (m)` <dbl>, `Leaf (m2)` <dbl>,
#   Setback <dbl>, TreeOr <dbl>, CarShade <dbl>, LandUse <dbl>, Shape <dbl>, …
…
