Week 11 Lab: Wrong But In a Useful Way - 3 Predicting new values
…
Rows: 14487 Columns: 41
── Column specification ────────────────────────────────────────────────────────
Delimiter: ","
chr (15): Region, City, Source, Zone, Park/Street, SpCode, ScientificName, C...
dbl (25): DbaseID, cell, Age, DBH (cm), TreeHt (m), CrnBase, CrnHt (m), Cdia...
num  (1): TreeID

ℹ Use `spec()` to retrieve the full column specification for this data.
ℹ Specify the column types or set `show_col_types = FALSE` to quiet this message.

treeDataSC

# A tibble: 45 × 41
   DbaseID Region City   Source TreeID Zone  `Park/Street` SpCode ScientificName
     <dbl> <chr>  <chr>  <chr>   <dbl> <chr> <chr>         <chr>  <chr>         
 1   10638 GulfCo Charl… CHSMa…  16918 S9    Street        QUPH   Quercus phell…
 2   10679 GulfCo Charl… CHSMa…  17680 Q9    Street        QUPH   Quercus phell…
 3   10698 GulfCo Charl… CHSMa…  18055 R10   Street        QUPH   Quercus phell…
 4   10705 GulfCo Charl… CHSMa…  18180 K7    Street        QUPH   Quercus phell…
 5   10714 GulfCo Charl… CHSMa…  18445 O7    Street        QUPH   Quercus phell…
 6   10779 GulfCo Charl… CHSMa…  19370 S10   Street        QUPH   Quercus phell…
 7   10780 GulfCo Charl… CHSMa…  19371 S10   Street        QUPH   Quercus phell…
 8   10844 GulfCo Charl… CHSMa…  20354 R10   Street        QUPH   Quercus phell…
 9   10848 GulfCo Charl… CHSMa…  20431 Q9    Street        QUPH   Quercus phell…
10   10849 GulfCo Charl… CHSMa…  20432 Q9    Street        QUPH   Quercus phell…
# ℹ 35 more rows
# ℹ 32 more variables: CommonName <chr>, TreeType <chr>, address <chr>,
#   street <chr>, side <chr>, cell <dbl>, OnStreet <chr>, FromStreet <chr>,
#   ToStreet <chr>, Age <dbl>, `DBH (cm)` <dbl>, `TreeHt (m)` <dbl>,
#   CrnBase <dbl>, `CrnHt (m)` <dbl>, `CdiaPar (m)` <dbl>,
#   `CDiaPerp (m)` <dbl>, `AvgCdia (m)` <dbl>, `Leaf (m2)` <dbl>,
#   Setback <dbl>, TreeOr <dbl>, CarShade <dbl>, LandUse <dbl>, Shape <dbl>, …
…
