Getting Started with Visualization in ggplot2 - 1 A Grammar of Graphics
…
  eruptions waiting
1     3.600      79
2     1.800      54
3     3.333      74
4     2.283      62
5     4.533      85
6     2.883      55

This table is showing two variables. The first is the duration of an eruption in minutes (eruptions), and the second is the number of minutes that follow until the next eruption (waiting). Before we get much further, let’s convert this to a tibble so we’re not switching between the tidyverse and base R conventions:

geyser<-as_tibble(faithful)
geyser

# A tibble: 272 × 2
   eruptions waiting
       <dbl>   <dbl>
 1      3.6       79
 2      1.8       54
 3      3.33      74
 4      2.28      62
 5      4.53      85
 6      2.88      55
 7      4.7       88
 8      3.6       85
 9      1.95      51
10      4.35      85
# ℹ 262 more rows
…
