Week 8 Lab - 2 Vector Data Handling
…
Using joins to combine table and spatial data

More often than not, you may want to do some kind of analysis or visualization only to find you have one variable stored in one dataset, and another stored in another dataset. This can be a bit frustrating, but there are tools. The most helpful of these is the left_join function. This takes two datasets and uses a common shared variable to join them together. This can be particularly helpful when some

This can be particularly helpful when you have table data and want to map it. Let’s say we wanted to view our 2007 life expectancy data from the gapminder dataset as a map. First, we’ll subset bring in that data and subset it to just 2007 and just the country and lifeExp columns:

library(gapminder)
gm2007<-gapminder |>
  filter(year==2007) |>
  select(country,lifeExp)
gm2007

# A tibble: 142 × 2
   country     lifeExp
   <fct>         <dbl>
 1 Afghanistan    43.8
 2 Albania        76.4
 3 Algeria        72.3
 4 Angola         42.7
 5 Argentina      75.3
 6 Australia      81.2
 7 Austria        79.8
 8 Bahrain        75.6
 9 Bangladesh     64.1
10 Belgium        79.4
# ℹ 132 more rows
…
