Week 10 Lab - 1 Hypothesis tests
…
gentoo<-filter(genChin,species == "Gentoo")
mean(gentoo$body_mass_g)

[1] 5076.016

So the average body mass for Chinstrap penguins in our sample is around 3733 grams, while the average for Gentoo penguins is around 5076. Just looking at these values would suggest there is a difference between the two populations. However, it is also possible that this is simply an outcome of our sampling. What if their average body mass were the same, and by random chance we just happened to get larger Gentoo penguins and/or smaller Chinstrap penguins?

We can reformulate this question as our null hypothesis: the average body mass of the population of Palmer Islands Chinstrap penguins is no different than that of the Gentoo penguins. If that were the case, then what is the probability that our samples would have a difference of 1376 g?

Next, we collect our data: in this case, it’s the body masses of the Chinstrap and Gentoo penguins, which we already assembled as a table above:

genChin

# A tibble: 191 × 2
   species body_mass_g
   <fct>         <int>
 1 Gentoo         4500
 2 Gentoo         5700
 3 Gentoo         4450
 4 Gentoo         5700
 5 Gentoo         5400
 6 Gentoo         4550
 7 Gentoo         4800
 8 Gentoo         5200
 9 Gentoo         4400
10 Gentoo         5150
# ℹ 181 more rows
…
