DynamicWorld Test
…
Process ranking data

Pivot ranking data to create table with columns for ranking, LULC label, and DW label. Mutate to recode text landcover labels to numeric landcover labels.

ranksPivot<-pivot_longer(ranksRaw,
                         cols=Water:Clouds,
                         names_to = "LULC",
                         values_to = "DW") %>%
  mutate(LULC = recode(LULC, Water = 0, Trees = 1, Grass =  2, `Flooded Vegetation` = 3, Crops = 4, `Successional Vegetation` = 5, Clouds = 9 )) %>%
  mutate(DW = recode(DW, DW_Water = 0, DW_Trees = 1, DW_Grass =  2, `DW_Flooded Vegetation` = 3, DW_Crops = 4, `DW_Shrub & Scrub` = 5, `DW_Built Area` = 6, `DW_Bare Ground` = 7,  `DW_Snow & Ice` = 8,DW_Clouds = 9 ))

ranksPivot

# A tibble: 63 × 3
   Ranking  LULC    DW
     <dbl> <dbl> <dbl>
 1       1     0     0
 2       1     1     1
 3       1     2     2
 4       1     3     3
 5       1     4     4
 6       1     5     5
 7       1     9     8
 8       2     0     8
 9       2     1     5
10       2     2     4
# ℹ 53 more rows
…
y

LULC label

DW label

Ranking

data<-as_tibble(comp) %>% rename(LULC=LULC2014_17_PolygonToRaster,DW=DW_RasterClip_2014_2017) %>% 
  mutate(LULC = recode(LULC, "0" = "Water",  "1" = "Trees",  "2" = "Grass", "3" = "Flooded Vegetation", "4" = "Crops",  "5" = "Successional Vegetation", "9" = "Clouds" )) %>%
  mutate(DW = recode(DW,"0" = "Water", "1" = "Trees", "2" = "Grass", "3" = "Flooded Vegetation", "4" = "Crops", "5" = "Shrub & Scrub", "6" = "Built Area", "7" = "Bare Ground",  "8" = "Snow & Ice" , "9" = "Clouds")) %>% select(x,y,LULC,DW,Ranking) 
  data

# A tibble: 1,392,928 × 5
       x     y LULC  DW    Ranking
   <dbl> <dbl> <chr> <chr>   <dbl>
 1 -83.7  8.75 Water Water       1
 2 -83.7  8.75 Water Water       1
 3 -83.7  8.75 Water Water       1
 4 -83.7  8.75 Water Water       1
 5 -83.7  8.75 Water Water       1
 6 -83.7  8.75 Water Water       1
 7 -83.7  8.75 Water Water       1
 8 -83.7  8.75 Water Water       1
 9 -83.7  8.75 Water Water       1
10 -83.7  8.75 Water Water       1
# ℹ 1,392,918 more rows
…
